Quartus Files/Lab 3/Files/out.vcd
$date
	Wed Nov 20 16:33:49 2019
$end
$version
	Icarus Verilog
$end
$timescale
	100ps
$end
$scope module tb $end
$var wire 10 ! LEDR [9:0] $end
$var reg 2 " KEY [1:0] $end
$var reg 10 # SW [9:0] $end
$var reg 1 $ clock $end
$scope module DUT $end
$var wire 1 $ ADC_CLK_10 $end
$var wire 2 % KEY [1:0] $end
$var wire 10 & SW [9:0] $end
$var wire 1 ' reset_n $end
$var wire 1 ( lrsel $end
$var wire 1 ) clk5hz $end
$var wire 3 * NextS [2:0] $end
$var wire 6 + LEDval [5:0] $end
$var wire 10 , LEDR [9:0] $end
$var wire 8 - HEX5 [7:0] $end
$var wire 8 . HEX4 [7:0] $end
$var wire 8 / HEX3 [7:0] $end
$var wire 8 0 HEX2 [7:0] $end
$var wire 8 1 HEX1 [7:0] $end
$var wire 8 2 HEX0 [7:0] $end
$var wire 3 3 CurrentS [2:0] $end
$scope module C1 $end
$var wire 1 ' reset_n $end
$var wire 1 ) clock $end
$var wire 3 4 NextS [2:0] $end
$var reg 3 5 CurrentS [2:0] $end
$upscope $end
$scope module D1 $end
$var wire 1 $ clockin $end
$var wire 1 ) clockout $end
$var wire 25 6 div [24:0] $end
$var reg 1 7 clock $end
$var reg 25 8 count [24:0] $end
$upscope $end
$scope module N1 $end
$var wire 3 9 CurrentS [2:0] $end
$var wire 1 : en $end
$var wire 1 ; haz $end
$var wire 1 ( lrsel $end
$var reg 3 < NextS [2:0] $end
$upscope $end
$scope module O1 $end
$var wire 3 = CurrentS [2:0] $end
$var reg 6 > LEDval [5:0] $end
$upscope $end
$scope module S0 $end
$var wire 1 ? blank $end
$var wire 4 @ data [3:0] $end
$var wire 1 A minus $end
$var reg 8 B HEX [7:0] $end
$upscope $end
$scope module S1 $end
$var wire 1 C blank $end
$var wire 4 D data [3:0] $end
$var wire 1 E minus $end
$var reg 8 F HEX [7:0] $end
$upscope $end
$scope module S2 $end
$var wire 1 G blank $end
$var wire 4 H data [3:0] $end
$var wire 1 I minus $end
$var reg 8 J HEX [7:0] $end
$upscope $end
$scope module S3 $end
$var wire 1 K blank $end
$var wire 4 L data [3:0] $end
$var wire 1 M minus $end
$var reg 8 N HEX [7:0] $end
$upscope $end
$scope module S4 $end
$var wire 1 O blank $end
$var wire 4 P data [3:0] $end
$var wire 1 Q minus $end
$var reg 8 R HEX [7:0] $end
$upscope $end
$scope module S5 $end
$var wire 1 S blank $end
$var wire 4 T data [3:0] $end
$var wire 1 U minus $end
$var reg 8 V HEX [7:0] $end
$upscope $end
$scope module T1 $end
$var wire 1 W key $end
$var wire 1 ' value $end
$var reg 1 ' val $end
$upscope $end
$scope module T2 $end
$var wire 1 X key $end
$var wire 1 ( value $end
$var reg 1 ( val $end
$upscope $end
$upscope $end
$upscope $end
$enddefinitions $end
#0
$dumpvars
0X
0W
b11111111 V
zU
bz T
1S
b11111111 R
zQ
b0x P
zO
b11111111 N
zM
bz L
1K
b11111111 J
zI
b0 H
zG
b11111111 F
zE
bz D
1C
b11111111 B
zA
b0xxx @
z?
bx >
bx =
b0 <
0;
0:
bx 9
b0 8
07
b0 6
bx 5
b0 4
bx 3
b11111111 2
b11111111 1
b11111111 0
b11111111 /
b11111111 .
b11111111 -
bx0110xxx ,
bx +
b0 *
0)
0(
0'
bx00 &
b0 %
0$
bx00 #
b0 "
bx0110xxx !
$end
#10
b110000 !
b110000 ,
b0 +
b0 >
b0 @
b0 3
b0 5
b0 9
b0 =
1)
17
1$
#20
0$
#30
0)
07
1$
#40
0$
#50
1)
17
1$
#60
b0 !
b0 ,
1'
1W
0$
b1 "
b1 %
#70
0)
07
1$
#80
0$
#90
1)
17
1$
#100
b1 *
b1 4
b1 <
1;
0$
bx01 #
bx01 &
#110
0)
07
1$
#120
0$
#130
b1110000111 !
b1110000111 ,
b0 *
b0 4
b0 <
b111111 +
b111111 >
b1 @
b1 3
b1 5
b1 9
b1 =
1)
17
1$
#140
0$
#150
0)
07
1$
#160
0$
#170
b0 !
b0 ,
b1 *
b1 4
b1 <
b0 +
b0 >
b0 @
b0 3
b0 5
b0 9
b0 =
1)
17
1$
#180
0$
#190
0)
07
1$
#200
0$
#210
b1110000111 !
b1110000111 ,
b0 *
b0 4
b0 <
b111111 +
b111111 >
b1 @
b1 3
b1 5
b1 9
b1 =
1)
17
1$
#220
0$
#230
0)
07
1$
#240
0$
#250
b0 !
b0 ,
b1 *
b1 4
b1 <
b0 +
b0 >
b0 @
b0 3
b0 5
b0 9
b0 =
1)
17
1$
#260
0$
#270
0)
07
1$
#280
0$
#290
b1110000111 !
b1110000111 ,
b0 *
b0 4
b0 <
b111111 +
b111111 >
b1 @
b1 3
b1 5
b1 9
b1 =
1)
17
1$
#300
1:
0;
0$
bx10 #
bx10 &
#310
0)
07
1$
#320
0$
#330
b0 !
b0 ,
b10 *
b10 4
b10 <
b0 +
b0 >
b0 @
b0 3
b0 5
b0 9
b0 =
1)
17
1$
#340
0$
#350
0)
07
1$
#360
0$
#370
b10000000 !
b10000000 ,
b11 *
b11 4
b11 <
b1000 +
b1000 >
b10 @
b10 3
b10 5
b10 9
b10 =
1)
17
1$
#380
0$
#390
0)
07
1$
#400
0$
#410
b110000000 !
b110000000 ,
b100 *
b100 4
b100 <
b11000 +
b11000 >
b11 @
b11 3
b11 5
b11 9
b11 =
1)
17
1$
#420
0$
#430
0)
07
1$
#440
0$
#450
b1110000000 !
b1110000000 ,
b0 *
b0 4
b0 <
b111000 +
b111000 >
b100 @
b100 3
b100 5
b100 9
b100 =
1)
17
1$
#460
0$
#470
0)
07
1$
#480
0$
#490
b0 !
b0 ,
b10 *
b10 4
b10 <
b0 +
b0 >
b0 @
b0 3
b0 5
b0 9
b0 =
1)
17
1$
#500
0$
#510
0)
07
1$
#520
0$
#530
b10000000 !
b10000000 ,
b11 *
b11 4
b11 <
b1000 +
b1000 >
b10 @
b10 3
b10 5
b10 9
b10 =
1)
17
1$
#540
0$
#550
0)
07
1$
#560
0$
#570
b110000000 !
b110000000 ,
b100 *
b100 4
b100 <
b11000 +
b11000 >
b11 @
b11 3
b11 5
b11 9
b11 =
1)
17
1$
#580
0$
#590
0)
07
1$
#600
0$
#610
b1110000000 !
b1110000000 ,
b111000 +
b111000 >
b0 *
b0 4
b0 <
b100 @
b100 3
b100 5
b100 9
b100 =
b1 H
1(
1)
17
1X
1$
b11 "
b11 %
#620
0$
#630
0)
07
1$
#640
0$
#650
b0 !
b0 ,
b101 *
b101 4
b101 <
b0 +
b0 >
b0 @
b0 3
b0 5
b0 9
b0 =
1)
17
1$
#660
0$
#670
0)
07
1$
#680
0$
#690
b100 !
b100 ,
b110 *
b110 4
b110 <
b100 +
b100 >
b101 @
b101 3
b101 5
b101 9
b101 =
1)
17
1$
#700
0$
#710
0)
07
1$
#720
0$
#730
b110 !
b110 ,
b111 *
b111 4
b111 <
b110 +
b110 >
b110 @
b110 3
b110 5
b110 9
b110 =
1)
17
1$
#740
0$
#750
0)
07
1$
#760
0$
#770
b111 !
b111 ,
b0 *
b0 4
b0 <
b111 +
b111 >
b111 @
b111 3
b111 5
b111 9
b111 =
1)
17
1$
#780
0$
#790
0)
07
1$
#800
0$
#810
b0 !
b0 ,
b101 *
b101 4
b101 <
b0 +
b0 >
b0 @
b0 3
b0 5
b0 9
b0 =
1)
17
1$
#820
0$
#830
0)
07
1$
#840
0$
#850
b100 !
b100 ,
b110 *
b110 4
b110 <
b100 +
b100 >
b101 @
b101 3
b101 5
b101 9
b101 =
1)
17
1$
#860
0$
#870
0)
07
1$
#880
0$
#890
b110 !
b110 ,
b111 *
b111 4
b111 <
b110 +
b110 >
b110 @
b110 3
b110 5
b110 9
b110 =
1)
17
1$
#900
b1 *
b1 4
b1 <
1;
0$
bx11 #
bx11 &
#910
0)
07
1$
#920
0$
#930
b1110000111 !
b1110000111 ,
b0 *
b0 4
b0 <
b111111 +
b111111 >
b1 @
b1 3
b1 5
b1 9
b1 =
1)
17
1$
#940
0$
#950
0)
07
1$
#960
0$
#970
b0 !
b0 ,
b1 *
b1 4
b1 <
b0 +
b0 >
b0 @
b0 3
b0 5
b0 9
b0 =
1)
17
1$
#980
0$
#990
0)
07
1$
#1000
0$
#1010
b1110000111 !
b1110000111 ,
b0 *
b0 4
b0 <
b111111 +
b111111 >
b1 @
b1 3
b1 5
b1 9
b1 =
1)
17
1$
#1020
0$
#1030
0)
07
1$
#1040
0$
#1050
b0 !
b0 ,
b1 *
b1 4
b1 <
b0 +
b0 >
b0 @
b0 3
b0 5
b0 9
b0 =
1)
17
1$
#1060
0$
#1070
0)
07
1$
#1080
0$
#1090
b1110000111 !
b1110000111 ,
b0 *
b0 4
b0 <
b111111 +
b111111 >
b1 @
b1 3
b1 5
b1 9
b1 =
1)
17
1$
#1100
0$
#1110
0)
07
1$
#1120
0$
#1130
b0 !
b0 ,
b1 *
b1 4
b1 <
b0 +
b0 >
b0 @
b0 3
b0 5
b0 9
b0 =
1)
17
1$
#1140
0$
#1150
0)
07
1$
#1160
0$
#1170
b1110000111 !
b1110000111 ,
b0 *
b0 4
b0 <
b111111 +
b111111 >
b1 @
b1 3
b1 5
b1 9
b1 =
1)
17
1$
